fpga/simulation/qsim/drone.msim.vcd
$comment
	File created using the following command:
		vcd file drone.msim.vcd -direction
$end
$date
	Fri Oct 15 16:02:48 2021
$end
$version
	ModelSim Version 10.1d
$end
$timescale
	1ps
$end
$scope module drone_vlg_vec_tst $end
$var reg 1 ! clock $end
$var reg 11 " dataIn [10:0] $end
$var reg 1 # load $end
$var wire 1 $ done $end
$var wire 1 % out $end
$var wire 1 & sampler $end
$scope module i1 $end
$var wire 1 ' gnd $end
$var wire 1 ( vcc $end
$var wire 1 ) unknown $end
$var tri1 1 * devclrn $end
$var tri1 1 + devpor $end
$var tri1 1 , devoe $end
$var wire 1 - U1|U_BitBang|C1|Q[5]~15_combout $end
$var wire 1 . U1|U_PosCounter|Q[6]~18 $end
$var wire 1 / U1|U_PosCounter|Q[7]~19_combout $end
$var wire 1 0 A1|LessThan0~2_combout $end
$var wire 1 1 A1|LessThan0~4_combout $end
$var wire 1 2 U1|U_BitBang|out~clkctrl_outclk $end
$var wire 1 3 load~combout $end
$var wire 1 4 U1|U_BitBang|C1|Q[1]~7_combout $end
$var wire 1 5 clock~combout $end
$var wire 1 6 U1|U_BitBang|countReset~0_combout $end
$var wire 1 7 U1|U_BitBang|C1|Q[1]~8 $end
$var wire 1 8 U1|U_BitBang|C1|Q[2]~9_combout $end
$var wire 1 9 U1|U_BitBang|C1|Q[2]~10 $end
$var wire 1 : U1|U_BitBang|C1|Q[3]~12 $end
$var wire 1 ; U1|U_BitBang|C1|Q[4]~13_combout $end
$var wire 1 < U1|U_BitBang|C1|Q[4]~14 $end
$var wire 1 = U1|U_BitBang|C1|Q[5]~16 $end
$var wire 1 > U1|U_BitBang|C1|Q[6]~18 $end
$var wire 1 ? U1|U_BitBang|C1|Q[7]~19_combout $end
$var wire 1 @ U1|U_BitBang|C1|Q[6]~17_combout $end
$var wire 1 A U1|U_BitBang|LessThan1~3_combout $end
$var wire 1 B U1|U_BitBang|C1|Q[3]~11_combout $end
$var wire 1 C U1|U_BitBang|LessThan1~2_combout $end
$var wire 1 D U1|U_BitBang|done~0_combout $end
$var wire 1 E U1|loadNext~combout $end
$var wire 1 F U1|loadNext~clkctrl_outclk $end
$var wire 1 G U1|U_PosCounter|Q[1]~7_combout $end
$var wire 1 H load~clkctrl_outclk $end
$var wire 1 I U1|U_PosCounter|Q[1]~8 $end
$var wire 1 J U1|U_PosCounter|Q[2]~10 $end
$var wire 1 K U1|U_PosCounter|Q[3]~11_combout $end
$var wire 1 L U1|U_PosCounter|Q[3]~12 $end
$var wire 1 M U1|U_PosCounter|Q[4]~14 $end
$var wire 1 N U1|U_PosCounter|Q[5]~15_combout $end
$var wire 1 O U1|U_PosCounter|Q[4]~13_combout $end
$var wire 1 P U1|U_PosCounter|Q[5]~16 $end
$var wire 1 Q U1|U_PosCounter|Q[6]~17_combout $end
$var wire 1 R U1|Selector0~0_combout $end
$var wire 1 S U1|Done_L|Q~combout $end
$var wire 1 T U1|enable~0_combout $end
$var wire 1 U U1|enable~regout $end
$var wire 1 V U1|U_BitBang|C1|Q[0]~21_combout $end
$var wire 1 W U1|U_BitBang|LessThan1~4_combout $end
$var wire 1 X U1|U_PosCounter|Q[0]~21_combout $end
$var wire 1 Y U1|Selector0~4_combout $end
$var wire 1 Z A1|dataOut[1]~2_combout $end
$var wire 1 [ A1|dataOut[3]~1_combout $end
$var wire 1 \ U1|Selector0~3_combout $end
$var wire 1 ] U1|Selector0~5_combout $end
$var wire 1 ^ A1|LessThan0~3_combout $end
$var wire 1 _ A1|dataOut[2]~0_combout $end
$var wire 1 ` U1|Selector0~1_combout $end
$var wire 1 a U1|Selector0~2_combout $end
$var wire 1 b U1|Selector0~6_combout $end
$var wire 1 c U1|U_PosCounter|Q[2]~9_combout $end
$var wire 1 d U1|Selector0~9_combout $end
$var wire 1 e U1|Selector0~10_combout $end
$var wire 1 f U1|Selector0~7_combout $end
$var wire 1 g U1|Selector0~8_combout $end
$var wire 1 h U1|Selector0~11_combout $end
$var wire 1 i U1|Selector0~12_combout $end
$var wire 1 j U1|U_BitBang|Reg_val|val~regout $end
$var wire 1 k U1|U_BitBang|LessThan1~5_combout $end
$var wire 1 l U1|U_BitBang|out~0_combout $end
$var wire 1 m U1|U_BitBang|out~combout $end
$var wire 1 n A1|dataOut [15] $end
$var wire 1 o A1|dataOut [14] $end
$var wire 1 p A1|dataOut [13] $end
$var wire 1 q A1|dataOut [12] $end
$var wire 1 r A1|dataOut [11] $end
$var wire 1 s A1|dataOut [10] $end
$var wire 1 t A1|dataOut [9] $end
$var wire 1 u A1|dataOut [8] $end
$var wire 1 v A1|dataOut [7] $end
$var wire 1 w A1|dataOut [6] $end
$var wire 1 x A1|dataOut [5] $end
$var wire 1 y A1|dataOut [4] $end
$var wire 1 z A1|dataOut [3] $end
$var wire 1 { A1|dataOut [2] $end
$var wire 1 | A1|dataOut [1] $end
$var wire 1 } A1|dataOut [0] $end
$var wire 1 ~ U1|U_PosCounter|Q [7] $end
$var wire 1 !! U1|U_PosCounter|Q [6] $end
$var wire 1 "! U1|U_PosCounter|Q [5] $end
$var wire 1 #! U1|U_PosCounter|Q [4] $end
$var wire 1 $! U1|U_PosCounter|Q [3] $end
$var wire 1 %! U1|U_PosCounter|Q [2] $end
$var wire 1 &! U1|U_PosCounter|Q [1] $end
$var wire 1 '! U1|U_PosCounter|Q [0] $end
$var wire 1 (! U1|data [15] $end
$var wire 1 )! U1|data [14] $end
$var wire 1 *! U1|data [13] $end
$var wire 1 +! U1|data [12] $end
$var wire 1 ,! U1|data [11] $end
$var wire 1 -! U1|data [10] $end
$var wire 1 .! U1|data [9] $end
$var wire 1 /! U1|data [8] $end
$var wire 1 0! U1|data [7] $end
$var wire 1 1! U1|data [6] $end
$var wire 1 2! U1|data [5] $end
$var wire 1 3! U1|data [4] $end
$var wire 1 4! U1|data [3] $end
$var wire 1 5! U1|data [2] $end
$var wire 1 6! U1|data [1] $end
$var wire 1 7! U1|data [0] $end
$var wire 1 8! dataIn~combout [10] $end
$var wire 1 9! dataIn~combout [9] $end
$var wire 1 :! dataIn~combout [8] $end
$var wire 1 ;! dataIn~combout [7] $end
$var wire 1 <! dataIn~combout [6] $end
$var wire 1 =! dataIn~combout [5] $end
$var wire 1 >! dataIn~combout [4] $end
$var wire 1 ?! dataIn~combout [3] $end
$var wire 1 @! dataIn~combout [2] $end
$var wire 1 A! dataIn~combout [1] $end
$var wire 1 B! dataIn~combout [0] $end
$var wire 1 C! U1|U_BitBang|C1|Q [7] $end
$var wire 1 D! U1|U_BitBang|C1|Q [6] $end
$var wire 1 E! U1|U_BitBang|C1|Q [5] $end
$var wire 1 F! U1|U_BitBang|C1|Q [4] $end
$var wire 1 G! U1|U_BitBang|C1|Q [3] $end
$var wire 1 H! U1|U_BitBang|C1|Q [2] $end
$var wire 1 I! U1|U_BitBang|C1|Q [1] $end
$var wire 1 J! U1|U_BitBang|C1|Q [0] $end
$upscope $end
$upscope $end
$enddefinitions $end
#0
$dumpvars
0!
b10110100011 "
0#
x$
0%
x&
0'
1(
x)
1*
1+
1,
0-
1.
0/
00
11
12
03
04
05
16
07
08
19
0:
0;
1<
0=
1>
0?
0@
1A
0B
1C
0D
1E
1F
0G
0H
0I
1J
0K
0L
1M
0N
0O
0P
0Q
1R
xS
xT
0U
1V
0W
0X
0Y
0Z
1[
0\
0]
0^
0_
0`
0a
0b
0c
0d
0e
0f
0g
0h
0i
0j
1k
1l
1m
0}
z|
z{
zz
zy
zx
zw
zv
zu
zt
zs
zr
zq
zp
zo
zn
0'!
0&!
0%!
0$!
0#!
0"!
0!!
0~
07!
06!
05!
04!
03!
02!
01!
00!
0/!
0.!
0-!
0,!
0+!
0*!
0)!
0(!
1B!
1A!
0@!
0?!
0>!
1=!
0<!
1;!
1:!
09!
18!
0J!
0I!
0H!
0G!
0F!
0E!
0D!
0C!
$end
#5000
1!
15
0&
xU
xm
xX
x6
x2
x%
#10000
0!
05
1&
#15000
1!
15
0&
1J!
1W
0V
14
0l
1m
12
0%
#20000
b110100011 "
b1110100011 "
b1111100011 "
b1111101011 "
b1111101001 "
b1111101000 "
0!
0B!
0A!
1?!
1<!
19!
08!
05
1&
1Z
1}
#25000
1!
15
0&
0J!
1I!
1V
0k
#30000
1#
0!
13
05
1H
1&
1T
0E
0F
0S
0$
1+!
1)!
1/!
17!
14!
16!
1-!
1*!
1,!
13!
1f
1g
#35000
1!
15
0&
16
0I!
1U
1k
0W
04
1X
1l
0m
02
1%
#40000
0#
0!
03
05
0H
1&
1E
06
1F
#45000
1!
15
0&
1J!
1W
0V
14
0l
1m
12
0%
1'!
1h
1Y
0X
1G
1i
#50000
b11111101000 "
b10111101000 "
b10110101000 "
b10110100000 "
b10110100010 "
b10110100011 "
0!
1B!
1A!
0?!
0<!
09!
18!
05
1&
0Z
0}
#55000
1!
15
0&
0J!
1I!
1V
0k
#60000
0!
05
1&
#65000
1!
15
0&
1J!
0V
1D
17
04
0E
18
0F
16
0J!
0I!
0W
1V
0D
07
1k
1l
1E
08
1F
0m
06
02
1%
1j
#70000
0!
05
1&
#75000
1!
15
0&
1J!
1W
0V
14
#80000
0!
05
1&
#85000
1!
15
0&
0J!
1I!
1V
0k
0l
1m
12
0%
0'!
1&!
0h
0Y
1X
1d
1a
1]
0i
0]
1e
1b
0b
1h
1i
#90000
0!
05
1&
#95000
1!
15
0&
1J!
0V
1D
17
04
0E
18
0F
16
0J!
0I!
0W
1V
0D
07
1k
1l
1E
08
1F
0m
06
02
1%
#100000
0!
05
1&
#105000
1!
15
0&
1J!
1W
0V
14
#110000
0!
05
1&
#115000
1!
15
0&
0J!
1I!
1V
0k
0l
1m
12
0%
1'!
1b
1Y
0X
1I
0G
1]
1c
#120000
0!
05
1&
#125000
1!
15
0&
1J!
0V
1D
17
04
0E
18
0F
16
0J!
0I!
0W
1V
0D
07
1k
1l
1E
08
1F
0m
06
02
1%
#130000
0!
05
1&
#135000
1!
15
0&
1J!
1W
0V
14
#140000
0!
05
1&
#145000
1!
15
0&
0J!
1I!
1V
0k
0l
1m
12
0%
1%!
0'!
0&!
0f
0e
0d
1\
0J
0c
0Y
1X
0I
0a
0]
0g
0h
1e
1]
1K
1J
1c
0b
1h
0i
1b
0K
1i
#150000
0!
05
1&
#155000
1!
15
0&
1J!
0V
1D
17
04
0E
18
0F
16
0J!
0I!
0W
1V
0D
07
1k
1l
1E
08
1F
0m
06
02
1%
#160000
0!
05
1&
#165000
1!
15
0&
1J!
1W
0V
14
#170000
0!
05
1&
#175000
1!
15
0&
0J!
1I!
1V
0k
0l
1m
12
0%
1'!
0h
0b
1Y
0X
1G
0i
1g
1h
1i
#180000
0!
05
1&
#185000
1!
15
0&
1J!
0V
1D
17
04
0E
18
0F
16
0J!
0I!
0W
1V
0D
07
1k
1l
1E
08
1F
0m
06
02
1%
#190000
0!
05
1&
#195000
1!
15
0&
1J!
1W
0V
14
#200000
0!
05
1&
#205000
1!
15
0&
0J!
1I!
1V
0k
0l
1m
12
0%
0'!
1&!
1b
0Y
1X
1f
1d
1a
1`
0e
0h
0i
#210000
0!
05
1&
#215000
1!
15
0&
1J!
0V
1D
17
04
0E
18
0F
16
0J!
0I!
0W
1V
0D
07
1k
1l
1E
08
1F
0m
06
02
1%
0j
#220000
0!
05
1&
#225000
1!
15
0&
1J!
1W
0V
14
0l
1m
12
0%
1'!
1h
1Y
0X
1I
0G
1i
0J
0c
1K
#230000
0!
05
1&
#235000
1!
15
0&
0J!
1I!
1V
0k
#240000
0!
05
1&
#245000
1!
15
0&
1J!
0V
1D
17
04
0E
18
0F
16
0J!
0I!
0W
1V
0D
07
1k
1l
1E
08
1F
0m
06
02
1%
1j
#250000
0!
05
1&
#255000
1!
15
0&
1J!
1W
0V
14
#260000
0!
05
1&
#265000
1!
15
0&
0J!
1I!
1V
0k
0l
1m
12
0%
0%!
0'!
1$!
0&!
1e
0d
0`
0\
1J
1c
0h
0Y
1X
0I
1L
0K
1h
0e
0a
0]
0L
1K
0c
1O
0h
0b
0O
0i
#270000
0!
05
1&
#275000
1!
15
0&
1J!
0V
1D
17
04
0E
18
0F
16
0J!
0I!
0W
1V
0D
07
1k
1l
1E
08
1F
0m
06
02
1%
0j
#280000
0!
05
1&
#285000
1!
15
0&
1J!
1W
0V
14
0l
1m
12
0%
1'!
1h
1Y
0X
1G
#290000
0!
05
1&
#295000
1!
15
0&
0J!
1I!
1V
0k
#300000
0!
05
1&
#305000
1!
15
0&
1J!
0V
1D
17
04
0E
18
0F
16
0J!
0I!
0W
1V
0D
07
1k
1l
1E
08
1F
0m
06
02
1%
#310000
0!
05
1&
#315000
1!
15
0&
1J!
1W
0V
14
0l
1m
12
0%
0'!
1&!
0h
0Y
1X
1d
1a
1]
0]
1e
1b
0b
1h
1i
0i
#320000
0!
05
1&
#325000
1!
15
0&
0J!
1I!
1V
0k
#330000
0!
05
1&
#335000
1!
15
0&
1J!
0V
1D
17
04
0E
18
0F
16
0J!
0I!
0W
1V
0D
07
1k
1l
1E
08
1F
0m
06
02
1%
#340000
0!
05
1&
#345000
1!
15
0&
1J!
1W
0V
14
0l
1m
12
0%
1'!
1b
1Y
0X
1I
0G
1i
1]
1c
#350000
0!
05
1&
#355000
1!
15
0&
0J!
1I!
1V
0k
#360000
0!
05
1&
#365000
1!
15
0&
1J!
0V
1D
17
04
0E
18
0F
16
0J!
0I!
0W
1V
0D
07
1k
1l
1E
08
1F
0m
06
02
1%
1j
#370000
0!
05
1&
#375000
1!
15
0&
1J!
1W
0V
14
#380000
0!
05
1&
#385000
1!
15
0&
0J!
1I!
1V
0k
0l
1m
12
0%
1%!
0'!
0&!
0f
0e
0d
1\
0J
0c
0Y
1X
0I
0a
0]
0g
0h
1e
1]
1L
0K
1J
1c
0b
1h
0i
1b
1O
0L
1K
1i
0O
#390000
0!
05
1&
#395000
1!
15
0&
1J!
0V
1D
17
04
0E
18
0F
16
0J!
0I!
0W
1V
0D
07
1k
1l
1E
08
1F
0m
06
02
1%
#400000
0!
05
1&
#405000
1!
15
0&
1J!
1W
0V
14
#410000
0!
05
1&
#415000
1!
15
0&
0J!
1I!
1V
0k
0l
1m
12
0%
1'!
0h
0b
1Y
0X
1G
0i
1g
1h
#420000
0!
05
1&
#425000
1!
15
0&
1J!
0V
1D
17
04
0E
18
0F
16
0J!
0I!
0W
1V
0D
07
1k
1l
1E
08
1F
0m
06
02
1%
0j
#430000
0!
05
1&
#435000
1!
15
0&
1J!
1W
0V
14
0l
1m
12
0%
0'!
1&!
1b
0Y
1X
1f
1d
1a
1`
1i
0e
0h
#440000
0!
05
1&
#445000
1!
15
0&
0J!
1I!
1V
0k
#450000
0!
05
1&
#455000
1!
15
0&
1J!
0V
1D
17
04
0E
18
0F
16
0J!
0I!
0W
1V
0D
07
1k
1l
1E
08
1F
0m
06
02
1%
1j
#460000
0!
05
1&
#465000
1!
15
0&
1J!
1W
0V
14
#470000
0!
05
1&
#475000
1!
15
0&
0J!
1I!
1V
0k
0l
1m
12
0%
1'!
1h
1Y
0X
1I
0G
0J
0c
1L
0K
1O
#480000
0!
05
1&
#485000
1!
15
0&
1J!
0V
1D
17
04
0E
18
0F
16
0J!
0I!
0W
1V
0D
07
1k
1l
1E
08
1F
0m
06
02
1%
#490000
0!
05
1&
#495000
1!
15
0&
1J!
1W
0V
14
#500000
0!
05
1&
#505000
1!
15
0&
0J!
1I!
1V
0k
0l
1m
12
0%
0%!
0'!
1#!
0$!
0&!
1e
0d
0`
0\
1J
1c
0h
0Y
1X
0I
0R
0M
0O
0L
1K
1h
0e
0a
0]
0K
0i
0c
1N
1M
1O
0h
0b
0N
#510000
0!
05
1&
#515000
1!
15
0&
1J!
0V
1D
17
04
0E
18
0F
16
1S
0T
1$
0J!
0I!
0W
1V
0D
07
1k
1l
1E
08
1F
0m
06
02
1%
0j
#520000
b10010100011 "
b10000100011 "
b10000110011 "
b110011 "
b110001 "
b110000 "
0!
0B!
0A!
1>!
0;!
0:!
08!
05
1&
1Z
1_
1}
1^
0[
#525000
1!
15
0&
1J!
0U
1W
0V
14
1m
0X
16
12
0l
0%
0J!
0W
1V
04
1l
#530000
1#
0!
13
05
1H
1&
1T
0E
0F
0+!
0)!
0/!
1.!
15!
04!
0#!
0*!
0,!
0f
1R
0O
0g
0S
0$
#535000
1!
15
0&
1U
0m
1X
02
1%
#540000
0#
0!
03
05
0H
1&
1E
06
1F
#545000
1!
15
0&
1J!
1W
0V
14
0l
1m
12
0%
1'!
1Y
0X
1G
#550000
0!
05
1&
#555000
1!
15
0&
0J!
1I!
1V
0k
#560000
b100110000 "
b110110000 "
b110100000 "
b10110100000 "
b10110100010 "
b10110100011 "
0!
1B!
1A!
0>!
1;!
1:!
18!
05
1&
0Z
0_
0}
0^
1[
#565000
1!
15
0&
1J!
0V
1D
17
04
0E
18
0F
16
0J!
0I!
0W
1V
0D
07
1k
1l
1E
08
1F
0m
06
02
1%
#570000
0!
05
1&
#575000
1!
15
0&
1J!
1W
0V
14
0l
1m
12
0%
0'!
1&!
0Y
1X
1a
1]
0]
1b
0b
#580000
0!
05
1&
#585000
1!
15
0&
0J!
1I!
1V
0k
#590000
0!
05
1&
#595000
1!
15
0&
1J!
0V
1D
17
04
0E
18
0F
16
0J!
0I!
0W
1V
0D
07
1k
1l
1E
08
1F
0m
06
02
1%
#600000
0!
05
1&
#605000
1!
15
0&
1J!
1W
0V
14
0l
1m
12
0%
1'!
1b
1Y
0X
1I
0G
1]
1c
#610000
0!
05
1&
#615000
1!
15
0&
0J!
1I!
1V
0k
#620000
0!
05
1&
#625000
1!
15
0&
1J!
0V
1D
17
04
0E
18
0F
16
0J!
0I!
0W
1V
0D
07
1k
1l
1E
08
1F
0m
06
02
1%
#630000
0!
05
1&
#635000
1!
15
0&
1J!
1W
0V
14
0l
1m
12
0%
1%!
0'!
0&!
1g
1`
0J
0c
0Y
1X
0I
0a
0]
1a
1K
0g
1J
1c
0b
0K
#640000
0!
05
1&
#645000
1!
15
0&
0J!
1I!
1V
0k
#650000
0!
05
1&
#655000
1!
15
0&
1J!
0V
1D
17
04
0E
18
0F
16
0J!
0I!
0W
1V
0D
07
1k
1l
1E
08
1F
0m
06
02
1%
#660000
0!
05
1&
#665000
1!
15
0&
1J!
1W
0V
14
0l
1m
12
0%
1'!
1b
1Y
0X
1G
1g
1h
1i
#670000
0!
05
1&
#675000
1!
15
0&
0J!
1I!
1V
0k
#680000
0!
05
1&
#685000
1!
15
0&
1J!
0V
1D
17
04
0E
18
0F
16
0J!
0I!
0W
1V
0D
07
1k
1l
1E
08
1F
0m
06
02
1%
1j
#690000
0!
05
1&
#695000
1!
15
0&
1J!
1W
0V
14
#700000
0!
05
1&
#705000
1!
15
0&
0J!
1I!
1V
0k
0l
1m
12
0%
0'!
1&!
0h
0b
0Y
1X
1f
1d
1]
1\
0i
0g
1e
1b
1h
1i
#710000
0!
05
1&
#715000
1!
15
0&
1J!
0V
1D
17
04
0E
18
0F
16
0J!
0I!
0W
1V
0D
07
1k
1l
1E
08
1F
0m
06
02
1%
#720000
0!
05
1&
#725000
1!
15
0&
1J!
1W
0V
14
#730000
0!
05
1&
#735000
1!
15
0&
0J!
1I!
1V
0k
0l
1m
12
0%
1'!
0h
1Y
0X
1I
0G
0i
0J
0c
1K
#740000
0!
05
1&
#745000
1!
15
0&
1J!
0V
1D
17
04
0E
18
0F
16
0J!
0I!
0W
1V
0D
07
1k
1l
1E
08
1F
0m
06
02
1%
0j
#750000
0!
05
1&
#755000
1!
15
0&
1J!
1W
0V
14
0l
1m
12
0%
0%!
0'!
1$!
0&!
1g
0f
0d
0`
0\
1J
1c
1h
0Y
1X
0I
1i
1L
0K
0g
0e
0a
0]
0L
1K
0c
1O
0h
0b
0O
0i
#760000
0!
05
1&
#765000
1!
15
0&
0J!
1I!
1V
0k
#770000
0!
05
1&
#775000
1!
15
0&
1J!
0V
1D
17
04
0E
18
0F
16
0J!
0I!
0W
1V
0D
07
1k
1l
1E
08
1F
0m
06
02
1%
#780000
0!
05
1&
#785000
1!
15
0&
1J!
1W
0V
14
0l
1m
12
0%
1'!
1Y
0X
1G
#790000
0!
05
1&
#795000
1!
15
0&
0J!
1I!
1V
0k
#800000
0!
05
1&
#805000
1!
15
0&
1J!
0V
1D
17
04
0E
18
0F
16
0J!
0I!
0W
1V
0D
07
1k
1l
1E
08
1F
0m
06
02
1%
#810000
0!
05
1&
#815000
1!
15
0&
1J!
1W
0V
14
0l
1m
12
0%
0'!
1&!
0Y
1X
1a
1]
0]
1b
0b
1i
0i
#820000
0!
05
1&
#825000
1!
15
0&
0J!
1I!
1V
0k
#830000
0!
05
1&
#835000
1!
15
0&
1J!
0V
1D
17
04
0E
18
0F
16
0J!
0I!
0W
1V
0D
07
1k
1l
1E
08
1F
0m
06
02
1%
#840000
0!
05
1&
#845000
1!
15
0&
1J!
1W
0V
14
0l
1m
12
0%
1'!
1b
1Y
0X
1I
0G
1i
1]
1c
#850000
0!
05
1&
#855000
1!
15
0&
0J!
1I!
1V
0k
#860000
0!
05
1&
#865000
1!
15
0&
1J!
0V
1D
17
04
0E
18
0F
16
0J!
0I!
0W
1V
0D
07
1k
1l
1E
08
1F
0m
06
02
1%
1j
#870000
0!
05
1&
#875000
1!
15
0&
1J!
1W
0V
14
#880000
0!
05
1&
#885000
1!
15
0&
0J!
1I!
1V
0k
0l
1m
12
0%
1%!
0'!
0&!
1g
1`
0J
0c
0Y
1X
0I
0a
0]
1a
1L
0K
0g
1J
1c
0b
1O
0L
1K
0i
0O
#890000
0!
05
1&
#895000
1!
15
0&
1J!
0V
1D
17
04
0E
18
0F
16
0J!
0I!
0W
1V
0D
07
1k
1l
1E
08
1F
0m
06
02
1%
0j
#900000
0!
05
1&
#905000
1!
15
0&
1J!
1W
0V
14
0l
1m
12
0%
1'!
1b
1Y
0X
1G
1i
1g
1h
#910000
0!
05
1&
#915000
1!
15
0&
0J!
1I!
1V
0k
#920000
0!
05
1&
#925000
1!
15
0&
1J!
0V
1D
17
04
0E
18
0F
16
0J!
0I!
0W
1V
0D
07
1k
1l
1E
08
1F
0m
06
02
1%
1j
#930000
0!
05
1&
#935000
1!
15
0&
1J!
1W
0V
14
#940000
0!
05
1&
#945000
1!
15
0&
0J!
1I!
1V
0k
0l
1m
12
0%
0'!
1&!
0h
0b
0Y
1X
1f
1d
1]
1\
0i
0g
1e
1b
1h
1i
#950000
0!
05
1&
#955000
1!
15
0&
1J!
0V
1D
17
04
0E
18
0F
16
0J!
0I!
0W
1V
0D
07
1k
1l
1E
08
1F
0m
06
02
1%
#960000
0!
05
1&
#965000
1!
15
0&
1J!
1W
0V
14
#970000
0!
05
1&
#975000
1!
15
0&
0J!
1I!
1V
0k
0l
1m
12
0%
1'!
0h
1Y
0X
1I
0G
0J
0c
1L
0K
1O
#980000
0!
05
1&
#985000
1!
15
0&
1J!
0V
1D
17
04
0E
18
0F
16
0J!
0I!
0W
1V
0D
07
1k
1l
1E
08
1F
0m
06
02
1%
#990000
0!
05
1&
#995000
1!
15
0&
1J!
1W
0V
14
#999000
b10110000011 "
b10010000011 "
b10000000011 "
b11 "
b1 "
b0 "
0B!
0A!
0=!
0;!
0:!
08!
1&
10
1}
1^
0[
0}
01
