fpga/simulation/qsim/drone.msim.vcd
$comment
	File created using the following command:
		vcd file drone.msim.vcd -direction
$end
$date
	Fri Oct 15 11:43:29 2021
$end
$version
	ModelSim Version 10.1d
$end
$timescale
	1ps
$end
$scope module drone_vlg_vec_tst $end
$var reg 1 ! clock $end
$var reg 11 " dataIn [10:0] $end
$var reg 1 # load $end
$var wire 1 $ debug $end
$var wire 1 % out $end
$var wire 1 & sampler $end
$scope module i1 $end
$var wire 1 ' gnd $end
$var wire 1 ( vcc $end
$var wire 1 ) unknown $end
$var tri1 1 * devclrn $end
$var tri1 1 + devpor $end
$var tri1 1 , devoe $end
$var wire 1 - U1|U1|C1|Q[3]~11_combout $end
$var wire 1 . U1|loadRun~combout $end
$var wire 1 / A1|LessThan0~3_combout $end
$var wire 1 0 load~clkctrl_outclk $end
$var wire 1 1 clock~clkctrl_outclk $end
$var wire 1 2 U1|loadNext~clkctrl_outclk $end
$var wire 1 3 U1|Reg_pos|val[3]~feeder_combout $end
$var wire 1 4 U1|U1|C1|Q[1]~7_combout $end
$var wire 1 5 clock~combout $end
$var wire 1 6 load~combout $end
$var wire 1 7 U1|nextPos~1_combout $end
$var wire 1 8 U1|nextPos[3]~0_combout $end
$var wire 1 9 U1|Reg_pos|val[0]~feeder_combout $end
$var wire 1 : U1|Add0~0_combout $end
$var wire 1 ; U1|Reg_pos|val[1]~feeder_combout $end
$var wire 1 < U1|Add0~2_combout $end
$var wire 1 = U1|Reg_pos|val[2]~feeder_combout $end
$var wire 1 > U1|LessThan0~0_combout $end
$var wire 1 ? U1|Reg_run|val~regout $end
$var wire 1 @ U1|U1|C1|Q[5]~15_combout $end
$var wire 1 A U1|U1|out~2_combout $end
$var wire 1 B U1|U1|C1|Q[6]~17_combout $end
$var wire 1 C U1|U1|done~0_combout $end
$var wire 1 D U1|U1|done~1_combout $end
$var wire 1 E U1|loadNext~combout $end
$var wire 1 F U1|U1|countReset~0_combout $end
$var wire 1 G U1|U1|C1|Q[1]~8 $end
$var wire 1 H U1|U1|C1|Q[2]~9_combout $end
$var wire 1 I U1|U1|C1|Q[2]~10 $end
$var wire 1 J U1|U1|C1|Q[3]~12 $end
$var wire 1 K U1|U1|C1|Q[4]~13_combout $end
$var wire 1 L U1|U1|C1|Q[4]~14 $end
$var wire 1 M U1|U1|C1|Q[5]~16 $end
$var wire 1 N U1|U1|C1|Q[6]~18 $end
$var wire 1 O U1|U1|C1|Q[7]~19_combout $end
$var wire 1 P A1|LessThan0~2_combout $end
$var wire 1 Q A1|LessThan0~4_combout $end
$var wire 1 R U1|Reg_data|val[6]~feeder_combout $end
$var wire 1 S U1|Mux0~0_combout $end
$var wire 1 T U1|Mux0~1_combout $end
$var wire 1 U A1|dataOut[2]~0_combout $end
$var wire 1 V A1|dataOut[3]~2_combout $end
$var wire 1 W A1|dataOut[1]~1_combout $end
$var wire 1 X U1|Mux0~7_combout $end
$var wire 1 Y U1|Mux0~8_combout $end
$var wire 1 Z U1|Add0~1_combout $end
$var wire 1 [ U1|Mux0~4_combout $end
$var wire 1 \ U1|Mux0~5_combout $end
$var wire 1 ] U1|Mux0~2_combout $end
$var wire 1 ^ U1|Mux0~3_combout $end
$var wire 1 _ U1|Mux0~6_combout $end
$var wire 1 ` U1|Mux0~9_combout $end
$var wire 1 a U1|U1|Reg_val|val~regout $end
$var wire 1 b U1|U1|C1|Q[0]~21_combout $end
$var wire 1 c U1|U1|out~3_combout $end
$var wire 1 d U1|U1|out~combout $end
$var wire 1 e U1|nextPos [3] $end
$var wire 1 f U1|nextPos [2] $end
$var wire 1 g U1|nextPos [1] $end
$var wire 1 h U1|nextPos [0] $end
$var wire 1 i U1|Reg_data|val [15] $end
$var wire 1 j U1|Reg_data|val [14] $end
$var wire 1 k U1|Reg_data|val [13] $end
$var wire 1 l U1|Reg_data|val [12] $end
$var wire 1 m U1|Reg_data|val [11] $end
$var wire 1 n U1|Reg_data|val [10] $end
$var wire 1 o U1|Reg_data|val [9] $end
$var wire 1 p U1|Reg_data|val [8] $end
$var wire 1 q U1|Reg_data|val [7] $end
$var wire 1 r U1|Reg_data|val [6] $end
$var wire 1 s U1|Reg_data|val [5] $end
$var wire 1 t U1|Reg_data|val [4] $end
$var wire 1 u U1|Reg_data|val [3] $end
$var wire 1 v U1|Reg_data|val [2] $end
$var wire 1 w U1|Reg_data|val [1] $end
$var wire 1 x U1|Reg_data|val [0] $end
$var wire 1 y U1|U1|C1|Q [7] $end
$var wire 1 z U1|U1|C1|Q [6] $end
$var wire 1 { U1|U1|C1|Q [5] $end
$var wire 1 | U1|U1|C1|Q [4] $end
$var wire 1 } U1|U1|C1|Q [3] $end
$var wire 1 ~ U1|U1|C1|Q [2] $end
$var wire 1 !! U1|U1|C1|Q [1] $end
$var wire 1 "! U1|U1|C1|Q [0] $end
$var wire 1 #! A1|dataOut [15] $end
$var wire 1 $! A1|dataOut [14] $end
$var wire 1 %! A1|dataOut [13] $end
$var wire 1 &! A1|dataOut [12] $end
$var wire 1 '! A1|dataOut [11] $end
$var wire 1 (! A1|dataOut [10] $end
$var wire 1 )! A1|dataOut [9] $end
$var wire 1 *! A1|dataOut [8] $end
$var wire 1 +! A1|dataOut [7] $end
$var wire 1 ,! A1|dataOut [6] $end
$var wire 1 -! A1|dataOut [5] $end
$var wire 1 .! A1|dataOut [4] $end
$var wire 1 /! A1|dataOut [3] $end
$var wire 1 0! A1|dataOut [2] $end
$var wire 1 1! A1|dataOut [1] $end
$var wire 1 2! A1|dataOut [0] $end
$var wire 1 3! U1|Reg_pos|val [3] $end
$var wire 1 4! U1|Reg_pos|val [2] $end
$var wire 1 5! U1|Reg_pos|val [1] $end
$var wire 1 6! U1|Reg_pos|val [0] $end
$var wire 1 7! dataIn~combout [10] $end
$var wire 1 8! dataIn~combout [9] $end
$var wire 1 9! dataIn~combout [8] $end
$var wire 1 :! dataIn~combout [7] $end
$var wire 1 ;! dataIn~combout [6] $end
$var wire 1 <! dataIn~combout [5] $end
$var wire 1 =! dataIn~combout [4] $end
$var wire 1 >! dataIn~combout [3] $end
$var wire 1 ?! dataIn~combout [2] $end
$var wire 1 @! dataIn~combout [1] $end
$var wire 1 A! dataIn~combout [0] $end
$upscope $end
$upscope $end
$enddefinitions $end
#0
$dumpvars
0!
b10110100011 "
0#
1$
0%
x&
0'
1(
x)
1*
1+
1,
0-
0.
0/
00
01
02
03
04
05
06
17
08
09
0:
0;
0<
0=
1>
0?
0@
1A
0B
0C
0D
0E
1F
0G
0H
1I
0J
0K
1L
0M
1N
0O
0P
1Q
1R
0S
0T
0U
1V
0W
0X
0Y
0Z
0[
0\
0]
0^
0_
0`
0a
1b
0c
0d
0h
0g
0f
0e
0x
0w
0v
0u
0t
0s
0r
0q
0p
0o
0n
0m
0l
0k
0j
0i
0"!
0!!
0~
0}
0|
0{
0z
0y
02!
z1!
z0!
z/!
z.!
z-!
z,!
z+!
z*!
z)!
z(!
z'!
z&!
z%!
z$!
z#!
06!
05!
04!
03!
1A!
1@!
0?!
0>!
0=!
1<!
0;!
1:!
19!
08!
17!
$end
#5000
1!
15
11
0&
#10000
0!
05
01
1&
#15000
1!
15
11
0&
#20000
b110100011 "
b1110100011 "
b1111100011 "
b1111101011 "
b1111101001 "
b1111101000 "
0!
0A!
0@!
1>!
1;!
18!
07!
05
01
1&
1W
0R
12!
#25000
1!
15
11
0&
#30000
1#
0!
16
05
01
10
1&
18
07
1m
1p
1n
1j
1l
1w
1u
1x
1t
1k
1]
1X
1^
1Y
#35000
1!
15
11
0&
1E
1.
12
1?
1c
1d
1%
#40000
0#
0!
06
05
01
00
1&
0E
17
0.
0F
02
#45000
1!
15
11
0&
1"!
1h
0c
0b
14
0]
1[
0X
19
0d
1\
0Y
1_
0%
1`
#50000
b11111101000 "
b10111101000 "
b10110101000 "
b10110100000 "
b10110100010 "
b10110100011 "
0!
1A!
1@!
0>!
0;!
08!
17!
05
01
1&
0W
1R
02!
#55000
1!
15
11
0&
0"!
1!!
1b
#60000
0!
05
01
1&
#65000
1!
15
11
0&
1"!
0b
1D
1G
04
1E
1.
1H
12
1F
0"!
0!!
1a
16!
1c
1b
0D
0G
1:
07
1d
0E
0.
0H
02
0F
1%
#70000
0!
05
01
1&
#75000
1!
15
11
0&
1"!
1g
0h
0b
14
0[
1X
1;
0^
09
1Y
#80000
0!
05
01
1&
#85000
1!
15
11
0&
0"!
1!!
0c
1b
0d
0%
#90000
0!
05
01
1&
#95000
1!
15
11
0&
1"!
0b
1D
1G
04
1E
1.
1H
12
1F
0"!
0!!
15!
06!
1c
1b
0D
0G
17
1d
0E
0.
0H
02
0F
1%
#100000
0!
05
01
1&
#105000
1!
15
11
0&
1"!
1h
0b
14
1^
1]
1[
1S
19
1T
#110000
0!
05
01
1&
#115000
1!
15
11
0&
0"!
1!!
0c
1b
0d
0%
#120000
0!
05
01
1&
#125000
1!
15
11
0&
1"!
0b
1D
1G
04
1E
1.
1H
12
1F
0"!
0!!
16!
1c
1b
0D
0G
1<
0:
07
1d
0E
0.
0H
02
0F
1%
#130000
0!
05
01
1&
#135000
1!
15
11
0&
1"!
1f
0g
0h
0b
14
1=
0[
0S
0;
09
0\
0T
#140000
0!
05
01
1&
#145000
1!
15
11
0&
0"!
1!!
0c
1b
0d
0%
#150000
0!
05
01
1&
#155000
1!
15
11
0&
1"!
0b
1D
1G
04
1E
1.
1H
12
1F
0"!
0!!
14!
05!
06!
1c
1b
0D
0G
17
1d
0E
0.
0H
02
0F
1%
#160000
0!
05
01
1&
#165000
1!
15
11
0&
1"!
1h
0b
14
0]
1[
0X
19
1\
0Y
#170000
0!
05
01
1&
#175000
1!
15
11
0&
0"!
1!!
0c
1b
0d
0%
#180000
0!
05
01
1&
#185000
1!
15
11
0&
1"!
0b
1D
1G
04
1E
1.
1H
12
1F
0"!
0!!
16!
1c
1b
0D
0G
1:
07
1d
0E
0.
0H
02
0F
1%
#190000
0!
05
01
1&
#195000
1!
15
11
0&
1"!
1g
0h
0b
14
0[
1X
1;
0^
09
1Y
0_
0`
#200000
0!
05
01
1&
#205000
1!
15
11
0&
0"!
1!!
0c
1b
0d
0%
#210000
0!
05
01
1&
#215000
1!
15
11
0&
1"!
0b
1D
1G
04
1E
1.
1H
12
1F
0"!
0!!
0a
15!
06!
1c
1b
0D
0G
17
1d
0E
0.
0H
02
0F
1%
#220000
0!
05
01
1&
#225000
1!
15
11
0&
1"!
1h
0c
0b
14
1^
1]
1[
1S
19
0d
1_
1T
1`
0%
#230000
0!
05
01
1&
#235000
1!
15
11
0&
0"!
1!!
1b
#240000
0!
05
01
1&
#245000
1!
15
11
0&
1"!
0b
1D
1G
04
1E
1.
1H
12
1F
0"!
0!!
1a
16!
1c
1b
0D
0G
1Z
0<
0:
07
1d
0E
0.
0H
02
0F
1%
#250000
0!
05
01
1&
#255000
1!
15
11
0&
1"!
1e
0f
0g
0h
0b
14
0_
13
0=
0[
0S
0;
09
0\
0T
0`
#260000
0!
05
01
1&
#265000
1!
15
11
0&
0"!
1!!
0c
1b
0d
0%
#270000
0!
05
01
1&
#275000
1!
15
11
0&
1"!
0b
1D
1G
04
1E
1.
1H
12
1F
0"!
0!!
0a
04!
05!
06!
13!
1c
1b
0D
0G
17
1d
0E
0.
0H
02
0F
1%
#280000
0!
05
01
1&
#285000
1!
15
11
0&
1"!
1h
0c
0b
14
0]
1[
0X
19
0d
1\
0Y
0%
#290000
0!
05
01
1&
#295000
1!
15
11
0&
0"!
1!!
1b
#300000
0!
05
01
1&
#305000
1!
15
11
0&
1"!
0b
1D
1G
04
1E
1.
1H
12
1F
0"!
0!!
16!
1c
1b
0D
0G
1:
07
1d
0E
0.
0H
02
0F
1%
#310000
0!
05
01
1&
#315000
1!
15
11
0&
1"!
1g
0h
0c
0b
14
0[
1X
1;
0^
09
0d
1Y
0%
#320000
0!
05
01
1&
#325000
1!
15
11
0&
0"!
1!!
1b
#330000
0!
05
01
1&
#335000
1!
15
11
0&
1"!
0b
1D
1G
04
1E
1.
1H
12
1F
0"!
0!!
15!
06!
1c
1b
0D
0G
17
1d
0E
0.
0H
02
0F
1%
#340000
0!
05
01
1&
#345000
1!
15
11
0&
1"!
1h
0c
0b
14
1^
1]
1[
1S
19
0d
1T
1`
0%
#350000
0!
05
01
1&
#355000
1!
15
11
0&
0"!
1!!
1b
#360000
0!
05
01
1&
#365000
1!
15
11
0&
1"!
0b
1D
1G
04
1E
1.
1H
12
1F
0"!
0!!
1a
16!
1c
1b
0D
0G
1<
0:
07
1d
0E
0.
0H
02
0F
1%
#370000
0!
05
01
1&
#375000
1!
15
11
0&
1"!
1f
0g
0h
0b
14
1_
1=
0[
0S
0;
09
0\
0T
#380000
0!
05
01
1&
#385000
1!
15
11
0&
0"!
1!!
0c
1b
0d
0%
#390000
0!
05
01
1&
#395000
1!
15
11
0&
1"!
0b
1D
1G
04
1E
1.
1H
12
1F
0"!
0!!
14!
05!
06!
1c
1b
0D
0G
17
1d
0E
0.
0H
02
0F
1%
#400000
0!
05
01
1&
#405000
1!
15
11
0&
1"!
1h
0b
14
0]
1[
0X
19
1\
0Y
0`
#410000
0!
05
01
1&
#415000
1!
15
11
0&
0"!
1!!
0c
1b
0d
0%
#420000
0!
05
01
1&
#425000
1!
15
11
0&
1"!
0b
1D
1G
04
1E
1.
1H
12
1F
0"!
0!!
0a
16!
1c
1b
0D
0G
1:
07
1d
0E
0.
0H
02
0F
1%
#430000
0!
05
01
1&
#435000
1!
15
11
0&
1"!
1g
0h
0c
0b
14
0[
1X
1;
0^
09
0d
1Y
1`
0%
#440000
0!
05
01
1&
#445000
1!
15
11
0&
0"!
1!!
1b
#450000
0!
05
01
1&
#455000
1!
15
11
0&
1"!
0b
1D
1G
04
1E
1.
1H
12
1F
0"!
0!!
1a
15!
06!
1c
1b
0D
0G
17
1d
0E
0.
0H
02
0F
1%
#460000
0!
05
01
1&
#465000
1!
15
11
0&
1"!
1h
0b
14
1^
1]
1[
1S
19
1T
#470000
0!
05
01
1&
#475000
1!
15
11
0&
0"!
1!!
0c
1b
0d
0%
#480000
0!
05
01
1&
#485000
1!
15
11
0&
1"!
0b
1D
1G
04
1E
1.
1H
12
1F
0"!
0!!
16!
1c
1b
0D
0G
0Z
0>
0<
0:
07
1d
0E
0.
0H
02
0$
0F
1%
#490000
0!
05
01
1&
#495000
1!
15
11
0&
1"!
0e
0f
0g
0h
0b
14
03
0=
0[
0S
0;
09
0\
0T
0_
0`
#500000
0!
05
01
1&
#505000
1!
15
11
0&
0"!
1!!
0c
1b
0d
0%
#510000
0!
05
01
1&
#515000
1!
15
11
0&
1"!
0b
1D
1G
04
1.
1H
0?
1F
0D
08
0.
0"!
0!!
1b
0G
0H
#520000
b10010100011 "
b10000100011 "
b10000110011 "
b110011 "
b110001 "
b110000 "
0!
0A!
0@!
1=!
0:!
09!
07!
05
01
1&
1W
1U
0R
12!
1/
0V
#525000
1!
15
11
0&
#530000
1#
0!
16
05
01
10
1&
18
1o
0m
0p
0j
0l
0u
1v
0k
0]
0X
0^
0Y
#535000
1!
15
11
0&
1E
1.
12
0a
04!
05!
06!
03!
1>
1$
#540000
0#
0!
06
05
01
00
1&
0E
08
17
0.
02
#545000
1!
15
11
0&
#550000
0!
05
01
1&
#555000
1!
15
11
0&
#560000
b100110000 "
b110110000 "
b110100000 "
b10110100000 "
b10110100010 "
b10110100011 "
0!
1A!
1@!
0=!
1:!
19!
17!
05
01
1&
0W
0U
1R
02!
0/
1V
#565000
1!
15
11
0&
#570000
0!
05
01
1&
#575000
1!
15
11
0&
#580000
0!
05
01
1&
#585000
1!
15
11
0&
#590000
0!
05
01
1&
#595000
1!
15
11
0&
#600000
0!
05
01
1&
#605000
1!
15
11
0&
#610000
0!
05
01
1&
#615000
1!
15
11
0&
#620000
0!
05
01
1&
#625000
1!
15
11
0&
#630000
0!
05
01
1&
#635000
1!
15
11
0&
#640000
0!
05
01
1&
#645000
1!
15
11
0&
#650000
0!
05
01
1&
#655000
1!
15
11
0&
#660000
0!
05
01
1&
#665000
1!
15
11
0&
#670000
0!
05
01
1&
#675000
1!
15
11
0&
#680000
0!
05
01
1&
#685000
1!
15
11
0&
#690000
0!
05
01
1&
#695000
1!
15
11
0&
#700000
0!
05
01
1&
#705000
1!
15
11
0&
#710000
0!
05
01
1&
#715000
1!
15
11
0&
#720000
0!
05
01
1&
#725000
1!
15
11
0&
#730000
0!
05
01
1&
#735000
1!
15
11
0&
#740000
0!
05
01
1&
#745000
1!
15
11
0&
#750000
0!
05
01
1&
#755000
1!
15
11
0&
#760000
0!
05
01
1&
#765000
1!
15
11
0&
#770000
0!
05
01
1&
#775000
1!
15
11
0&
#780000
0!
05
01
1&
#785000
1!
15
11
0&
#790000
0!
05
01
1&
#795000
1!
15
11
0&
#800000
0!
05
01
1&
#805000
1!
15
11
0&
#810000
0!
05
01
1&
#815000
1!
15
11
0&
#820000
0!
05
01
1&
#825000
1!
15
11
0&
#830000
0!
05
01
1&
#835000
1!
15
11
0&
#840000
0!
05
01
1&
#845000
1!
15
11
0&
#850000
0!
05
01
1&
#855000
1!
15
11
0&
#860000
0!
05
01
1&
#865000
1!
15
11
0&
#870000
0!
05
01
1&
#875000
1!
15
11
0&
#880000
0!
05
01
1&
#885000
1!
15
11
0&
#890000
0!
05
01
1&
#895000
1!
15
11
0&
#900000
0!
05
01
1&
#905000
1!
15
11
0&
#910000
0!
05
01
1&
#915000
1!
15
11
0&
#920000
0!
05
01
1&
#925000
1!
15
11
0&
#930000
0!
05
01
1&
#935000
1!
15
11
0&
#940000
0!
05
01
1&
#945000
1!
15
11
0&
#950000
0!
05
01
1&
#955000
1!
15
11
0&
#960000
0!
05
01
1&
#965000
1!
15
11
0&
#970000
0!
05
01
1&
#975000
1!
15
11
0&
#980000
0!
05
01
1&
#985000
1!
15
11
0&
#990000
0!
05
01
1&
#995000
1!
15
11
0&
#999000
b10110000011 "
b10010000011 "
b10000000011 "
b11 "
b1 "
b0 "
0A!
0@!
0<!
0:!
09!
07!
1&
0R
1P
12!
1/
0V
02!
0Q
